{
  "name": "discount",
  "plural": "sales",
  "base": "PersistedModel",
  "idInjection": true,
  "options": {
    "validateUpsert": true
  },
  "properties": {
    "name": {
      "type": "string",
      "required": true
    },
    "brand": {
      "type": "string",
      "required": true
    },
    "category": {
      "type": "string",
      "required": true
    },
    "img": {
      "type": "string",
      "required": true
    },
    "description": {
      "type": "string",
      "required": true
    },
    "dateFrom": {
      "type": "date",
      "required": true
    },
    "dateTo": {
      "type": "date",
      "required": true
    },
    "discountSize": {
      "type": "string",
      "required": true
    },
    "couponCode": {
      "type": "string"
    }
  },
  "validations": [],
  "relations": {},
  "acls": [],
  "methods": {}
}
